…
An Example

To illustrate what questions to ask the expert and how to turn the information into prior parameters, let’s consider an example. The data we will use is on NBA players from the 2015 season. There are 28 variables but we will only consider 4 here. The response is personal fouls (PF) and we are going to model this as a function of steals (STL), blocks (BLK), and minutes (MIN):

\[ PF|\beta,\tau \sim N(\beta_1 + \beta_2 STL + \beta_2 BLK + \beta_3 MIN, \hspace{5pt} 1/\tau) \]

These variables are recorded on a per game basis across the season (i.e. the first player had 0.6 personal fouls per game, 0.3 steals per game, 0 blocks, and played 12.4 minutes per game for the 2015 season).

library(readr)
library(dplyr)
nba <- read_csv('../../static/data/nba2015.csv') %>%
  select(PF, STL, BLK, MIN)
nba

## # A tibble: 492 x 4
##       PF   STL   BLK   MIN
##    <dbl> <dbl> <dbl> <dbl>
##  1 0.600 0.300 0     12.4 
##  2 2.30  0.700 0.200 23.0 
##  3 1.80  0.400 0.500 17.0 
##  4 2.80  0.600 0.300 23.1 
##  5 1.60  0.900 1.30  30.5 
##  6 2.10  0.700 1.30  30.6 
##  7 1.90  0.900 0.800 18.5 
##  8 2.00  0.800 0.100 23.6 
##  9 2.40  0.600 0.200 33.3 
## 10 0.200 0     0      2.80
## # ... with 482 more rows
…
